{
    "cache-control": "max-age=0, private, must-revalidate",
    "content-type": "application/json; charset=utf-8",
    "count": "100",
    "link": "<https://api.magicthegathering.io/v1/cards/?name=&page=636>; rel=\"last\", <https://api.magicthegathering.io/v1/cards/?name=&page=2>; rel=\"next\"",
    "page-size": "100",
    "ratelimit-limit": "1000",
    "ratelimit-remaining": "996",
    "total-count": "63502"
}


{
    "cache-control": "max-age=0, private, must-revalidate",
    "content-type": "application/json; charset=utf-8",
    "count": "100",
    "link": "<https://api.magicthegathering.io/v1/cards/?name=&page=1>; rel=\"first\", <https://api.magicthegathering.io/v1/cards/?name=&page=636>; rel=\"last\", <https://api.magicthegathering.io/v1/cards/?name=&page=6>; rel=\"next\", <https://api.magicthegathering.io/v1/cards/?name=&page=4>; rel=\"prev\"",
    "page-size": "100",
    "ratelimit-limit": "1000",
    "ratelimit-remaining": "996",
    "total-count": "63502"
}


SERÁ??!!!!

const header = "<https://api.magicthegathering.io/v1/cards/?name=&page=636>; rel=\"last\", <https://api.magicthegathering.io/v1/cards/?name=&page=2>; rel=\"next\""

// console.log(header.split(/,/g))
const headerSplit = header.trim().split(/,/g)
    const pages = []; //array
    const links = []; //array
headerSplit.forEach((line)=> {
    // console.log(line.trim().slice(0,line.trim().search(';')))
    pages.push(line.trim().slice(0,line.trim().search(';')))
    links.push(line.slice(line.search(';')+7,line.indexOf(' " ')))
    
})
links.forEach(one => console.log(one))
pages.forEach(one => console.log(one))



first
last
next
prev

<https://api.magicthegathering.io/v1/cards?page=1>
<https://api.magicthegathering.io/v1/cards?page=636>
<https://api.magicthegathering.io/v1/cards?page=5>
<https://api.magicthegathering.io/v1/cards?page=3>